<svg width="34" height="35" viewBox="0 0 34 35" fill="none" xmlns="http://www.w3.org/2000/svg">
<path d="M32.9375 27.8592H30.8125V8.46854C30.812 7.97557 30.6159 7.50294 30.2673 7.15436C29.9187 6.80578 29.4461 6.60971 28.9531 6.60916H23.286C23.0351 5.12347 22.2662 3.77464 21.1155 2.80196C19.9648 1.82927 18.5067 1.29559 17 1.29559C15.4933 1.29559 14.0352 1.82927 12.8845 2.80196C11.7338 3.77464 10.9649 5.12347 10.714 6.60916H5.04688C4.55391 6.60971 4.08128 6.80578 3.7327 7.15436C3.38412 7.50294 3.18804 7.97557 3.1875 8.46854V27.8592H1.0625C0.921604 27.8592 0.786478 27.9151 0.68685 28.0148C0.587221 28.1144 0.53125 28.2495 0.53125 28.3904V31.3123C0.531795 31.8053 0.727868 32.2779 1.07645 32.6265C1.42503 32.975 1.89766 33.1711 2.39062 33.1717H31.6094C32.1023 33.1711 32.575 32.975 32.9235 32.6265C33.2721 32.2779 33.4682 31.8053 33.4688 31.3123V28.3904C33.4688 28.2495 33.4128 28.1144 33.3132 28.0148C33.2135 27.9151 33.0784 27.8592 32.9375 27.8592ZM22.2859 7.14041H20.1762C20.1198 5.70405 19.8362 4.3633 19.3621 3.3194C19.2751 3.12948 19.1834 2.95195 19.0871 2.78682C19.9602 3.16119 20.7172 3.7623 21.2797 4.52782C21.8421 5.29333 22.1896 6.19538 22.2859 7.14041ZM22.2859 8.20291C22.1896 9.14794 21.8421 10.05 21.2797 10.8155C20.7172 11.581 19.9602 12.1821 19.0871 12.5565C19.1834 12.3918 19.2751 12.2143 19.3621 12.0239C19.8362 10.98 20.1198 9.63928 20.1762 8.20291H22.2859ZM17.5312 2.5617C17.8394 2.79014 18.1415 3.20319 18.3945 3.75901C18.8089 4.67076 19.0593 5.85612 19.1137 7.14041H17.5312V2.5617ZM17.5312 8.20291H19.1137C19.0593 9.48721 18.8089 10.6726 18.3945 11.5843C18.1415 12.1401 17.8394 12.5532 17.5312 12.7816V8.20291ZM16.4688 2.5617V7.14041H14.8863C14.9407 5.85612 15.1911 4.67076 15.6055 3.75901C15.8585 3.20319 16.1606 2.79014 16.4688 2.5617ZM16.4688 8.20291V12.7816C16.1606 12.5532 15.8585 12.1401 15.6055 11.5843C15.1911 10.6726 14.9407 9.48721 14.8863 8.20291H16.4688ZM14.9129 2.78682C14.8166 2.95151 14.7249 3.12903 14.6379 3.3194C14.1638 4.3633 13.8802 5.70405 13.8238 7.14041H11.7141C11.8104 6.19538 12.1579 5.29333 12.7203 4.52782C13.2828 3.7623 14.0398 3.16119 14.9129 2.78682ZM13.8238 8.20291C13.8802 9.63928 14.1638 10.98 14.6379 12.0239C14.7249 12.2138 14.8166 12.3914 14.9129 12.5565C14.0398 12.1821 13.2828 11.581 12.7203 10.8155C12.1579 10.05 11.8104 9.14794 11.7141 8.20291H13.8238ZM10.8269 9.26541C11.1803 10.6339 11.9785 11.8461 13.0959 12.7115C14.2133 13.577 15.5866 14.0466 17 14.0466C18.4134 14.0466 19.7867 13.577 20.9041 12.7115C22.0215 11.8461 22.8197 10.6339 23.1731 9.26541H28.1562V26.2654H5.84375V9.26541H10.8269ZM4.25 8.46854C4.25018 8.25725 4.33419 8.05466 4.48359 7.90526C4.633 7.75585 4.83558 7.67184 5.04688 7.67166H10.625C10.625 7.8503 10.633 8.0276 10.6476 8.20291H5.3125C5.1716 8.20291 5.03648 8.25888 4.93685 8.35851C4.83722 8.45814 4.78125 8.59327 4.78125 8.73416V26.7967C4.78125 26.9376 4.83722 27.0727 4.93685 27.1723C5.03648 27.2719 5.1716 27.3279 5.3125 27.3279H28.6875C28.8284 27.3279 28.9635 27.2719 29.0632 27.1723C29.1628 27.0727 29.2188 26.9376 29.2188 26.7967V8.73416C29.2188 8.59327 29.1628 8.45814 29.0632 8.35851C28.9635 8.25888 28.8284 8.20291 28.6875 8.20291H23.3524C23.367 8.0276 23.375 7.8503 23.375 7.67166H28.9531C29.1644 7.67184 29.367 7.75585 29.5164 7.90526C29.6658 8.05466 29.7498 8.25725 29.75 8.46854V27.8592H4.25V8.46854ZM18.9191 28.9217L18.7418 29.4529H15.2582L15.0809 28.9217H18.9191ZM32.4062 31.3123C32.4061 31.5236 32.3221 31.7262 32.1727 31.8756C32.0233 32.025 31.8207 32.109 31.6094 32.1092H2.39062C2.17933 32.109 1.97675 32.025 1.82734 31.8756C1.67794 31.7262 1.59393 31.5236 1.59375 31.3123V28.9217H13.9606L14.371 30.1522C14.4062 30.2579 14.4739 30.35 14.5644 30.4151C14.6548 30.4803 14.7635 30.5154 14.875 30.5154H19.125C19.2365 30.5154 19.3452 30.4803 19.4356 30.4151C19.5261 30.35 19.5938 30.2579 19.629 30.1522L20.0394 28.9217H32.4062V31.3123Z" fill="#808080" fill-opacity="0.5"/>
<path d="M6.90625 23.6091H13.2812C13.4221 23.6091 13.5573 23.5532 13.6569 23.4535C13.7565 23.3539 13.8125 23.2188 13.8125 23.0779V15.6404C13.8125 15.4995 13.7565 15.3644 13.6569 15.2647C13.5573 15.1651 13.4221 15.1091 13.2812 15.1091H6.90625C6.76535 15.1091 6.63023 15.1651 6.5306 15.2647C6.43097 15.3644 6.375 15.4995 6.375 15.6404V23.0779C6.375 23.2188 6.43097 23.3539 6.5306 23.4535C6.63023 23.5532 6.76535 23.6091 6.90625 23.6091ZM7.4375 16.1716H12.75V22.5466H7.4375V16.1716Z" fill="#808080" fill-opacity="0.5"/>
<path d="M20.7188 23.6091H27.0938C27.2346 23.6091 27.3698 23.5532 27.4694 23.4535C27.569 23.3539 27.625 23.2188 27.625 23.0779V15.6404C27.625 15.4995 27.569 15.3644 27.4694 15.2647C27.3698 15.1651 27.2346 15.1091 27.0938 15.1091H20.7188C20.5779 15.1091 20.4427 15.1651 20.3431 15.2647C20.2435 15.3644 20.1875 15.4995 20.1875 15.6404V23.0779C20.1875 23.2188 20.2435 23.3539 20.3431 23.4535C20.4427 23.5532 20.5779 23.6091 20.7188 23.6091ZM21.25 16.1716H26.5625V22.5466H21.25V16.1716Z" fill="#808080" fill-opacity="0.5"/>
<path d="M11.1562 18.8279H9.03125C8.89035 18.8279 8.75523 18.8839 8.6556 18.9835C8.55597 19.0831 8.5 19.2182 8.5 19.3591C8.5 19.5 8.55597 19.6352 8.6556 19.7348C8.75523 19.8344 8.89035 19.8904 9.03125 19.8904H11.1562C11.2971 19.8904 11.4323 19.8344 11.5319 19.7348C11.6315 19.6352 11.6875 19.5 11.6875 19.3591C11.6875 19.2182 11.6315 19.0831 11.5319 18.9835C11.4323 18.8839 11.2971 18.8279 11.1562 18.8279Z" fill="#808080" fill-opacity="0.5"/>
<path d="M11.1562 17.2341H9.03125C8.89035 17.2341 8.75523 17.2901 8.6556 17.3897C8.55597 17.4894 8.5 17.6245 8.5 17.7654C8.5 17.9063 8.55597 18.0414 8.6556 18.141C8.75523 18.2407 8.89035 18.2966 9.03125 18.2966H11.1562C11.2971 18.2966 11.4323 18.2407 11.5319 18.141C11.6315 18.0414 11.6875 17.9063 11.6875 17.7654C11.6875 17.6245 11.6315 17.4894 11.5319 17.3897C11.4323 17.2901 11.2971 17.2341 11.1562 17.2341Z" fill="#808080" fill-opacity="0.5"/>
<path d="M11.1562 20.4216H9.03125C8.89035 20.4216 8.75523 20.4776 8.6556 20.5772C8.55597 20.6769 8.5 20.812 8.5 20.9529C8.5 21.0938 8.55597 21.2289 8.6556 21.3285C8.75523 21.4282 8.89035 21.4841 9.03125 21.4841H11.1562C11.2971 21.4841 11.4323 21.4282 11.5319 21.3285C11.6315 21.2289 11.6875 21.0938 11.6875 20.9529C11.6875 20.812 11.6315 20.6769 11.5319 20.5772C11.4323 20.4776 11.2971 20.4216 11.1562 20.4216Z" fill="#808080" fill-opacity="0.5"/>
<path d="M14.875 20.9529H15.9375V22.0154C15.9375 22.1205 15.9687 22.2232 16.027 22.3106C16.0854 22.3979 16.1684 22.466 16.2654 22.5062C16.3625 22.5464 16.4693 22.557 16.5724 22.5365C16.6755 22.516 16.7701 22.4654 16.8444 22.3911L19.5007 19.7348C19.55 19.6855 19.5891 19.6269 19.6158 19.5625C19.6425 19.498 19.6563 19.4289 19.6563 19.3592C19.6563 19.2894 19.6425 19.2203 19.6158 19.1558C19.5891 19.0914 19.55 19.0328 19.5007 18.9835L16.8444 16.3272C16.7701 16.2529 16.6755 16.2023 16.5724 16.1818C16.4693 16.1613 16.3625 16.1719 16.2654 16.2121C16.1684 16.2523 16.0854 16.3204 16.027 16.4077C15.9687 16.4951 15.9375 16.5978 15.9375 16.7029V17.7654H14.875C14.7341 17.7654 14.599 17.8214 14.4993 17.921C14.3997 18.0206 14.3438 18.1558 14.3438 18.2967V20.4217C14.3438 20.5626 14.3997 20.6977 14.4993 20.7973C14.599 20.8969 14.7341 20.9529 14.875 20.9529ZM15.4063 18.8279H16.4688C16.6096 18.8279 16.7448 18.7719 16.8444 18.6723C16.944 18.5727 17 18.4375 17 18.2967V17.9854L18.3737 19.3592L17 20.7329V20.4217C17 20.2808 16.944 20.1456 16.8444 20.046C16.7448 19.9464 16.6096 19.8904 16.4688 19.8904H15.4063V18.8279Z" fill="#808080" fill-opacity="0.5"/>
<path d="M24.9688 18.2966C25.1096 18.2966 25.2448 18.2407 25.3444 18.141C25.444 18.0414 25.5 17.9063 25.5 17.7654C25.5 17.6245 25.444 17.4894 25.3444 17.3897C25.2448 17.2901 25.1096 17.2341 24.9688 17.2341H24.4375C24.4375 17.0932 24.3815 16.9581 24.2819 16.8585C24.1823 16.7589 24.0471 16.7029 23.9062 16.7029C23.7654 16.7029 23.6302 16.7589 23.5306 16.8585C23.431 16.9581 23.375 17.0932 23.375 17.2341H22.8438C22.7029 17.2341 22.5677 17.2901 22.4681 17.3897C22.3685 17.4894 22.3125 17.6245 22.3125 17.7654V19.3591C22.3125 19.5 22.3685 19.6352 22.4681 19.7348C22.5677 19.8344 22.7029 19.8904 22.8438 19.8904H24.4375V20.4216H22.8438C22.7029 20.4216 22.5677 20.4776 22.4681 20.5772C22.3685 20.6769 22.3125 20.812 22.3125 20.9529C22.3125 21.0938 22.3685 21.2289 22.4681 21.3285C22.5677 21.4282 22.7029 21.4841 22.8438 21.4841H23.375C23.375 21.625 23.431 21.7602 23.5306 21.8598C23.6302 21.9594 23.7654 22.0154 23.9062 22.0154C24.0471 22.0154 24.1823 21.9594 24.2819 21.8598C24.3815 21.7602 24.4375 21.625 24.4375 21.4841H24.9688C25.1096 21.4841 25.2448 21.4282 25.3444 21.3285C25.444 21.2289 25.5 21.0938 25.5 20.9529V19.3591C25.5 19.2182 25.444 19.0831 25.3444 18.9835C25.2448 18.8839 25.1096 18.8279 24.9688 18.8279H23.375V18.2966H24.9688Z" fill="#808080" fill-opacity="0.5"/>
</svg>
